^E:\4TH_YEAR\HONOURS PROJECT\HONOURSPROJECT\SOLARSYSTEM\SOLARSYSTEM\ASTEROID.CPP|E:\4TH_YEAR\HONOURS PROJECT\HONOURSPROJECT\SOLARSYSTEM\SOLARSYSTEM\CAMERA.CPP|E:\4TH_YEAR\HONOURS PROJECT\HONOURSPROJECT\SOLARSYSTEM\SOLARSYSTEM\GAME.CPP|E:\4TH_YEAR\HONOURS PROJECT\HONOURSPROJECT\SOLARSYSTEM\SOLARSYSTEM\GUI.CPP|E:\4TH_YEAR\HONOURS PROJECT\HONOURSPROJECT\SOLARSYSTEM\SOLARSYSTEM\LOADBITMAP.CPP|E:\4TH_YEAR\HONOURS PROJECT\HONOURSPROJECT\SOLARSYSTEM\SOLARSYSTEM\LOADCUBEMAP.CPP|E:\4TH_YEAR\HONOURS PROJECT\HONOURSPROJECT\SOLARSYSTEM\SOLARSYSTEM\LOADOBJECT.CPP|E:\4TH_YEAR\HONOURS PROJECT\HONOURSPROJECT\SOLARSYSTEM\SOLARSYSTEM\MAIN.CPP|E:\4TH_YEAR\HONOURS PROJECT\HONOURSPROJECT\SOLARSYSTEM\SOLARSYSTEM\NEWTONPHYSICS.CPP|E:\4TH_YEAR\HONOURS PROJECT\HONOURSPROJECT\SOLARSYSTEM\SOLARSYSTEM\PERTURBATIONS.CPP|E:\4TH_YEAR\HONOURS PROJECT\HONOURSPROJECT\SOLARSYSTEM\SOLARSYSTEM\PLANET.CPP|E:\4TH_YEAR\HONOURS PROJECT\HONOURSPROJECT\SOLARSYSTEM\SOLARSYSTEM\RT3D.CPP|E:\4TH_YEAR\HONOURS PROJECT\HONOURSPROJECT\SOLARSYSTEM\SOLARSYSTEM\RT3DOBJLOADER.CPP|E:\4TH_YEAR\HONOURS PROJECT\HONOURSPROJECT\SOLARSYSTEM\SOLARSYSTEM\SHADERMANAGER.CPP|E:\4TH_YEAR\HONOURS PROJECT\HONOURSPROJECT\SOLARSYSTEM\SOLARSYSTEM\STATEMAINMENU.CPP|E:\4TH_YEAR\HONOURS PROJECT\HONOURSPROJECT\SOLARSYSTEM\SOLARSYSTEM\STATENEWTON.CPP|E:\4TH_YEAR\HONOURS PROJECT\HONOURSPROJECT\SOLARSYSTEM\SOLARSYSTEM\TEXTUREMANAGER.CPP|E:\4TH_YEAR\HONOURS PROJECT\HONOURSPROJECT\SOLARSYSTEM\SOLARSYSTEM\TIMER.CPP
E:\4TH_YEAR\HONOURS PROJECT\HONOURSPROJECT\SOLARSYSTEM\SOLARSYSTEM\DEBUG\VC120.PDB
E:\4TH_YEAR\HONOURS PROJECT\HONOURSPROJECT\SOLARSYSTEM\SOLARSYSTEM\DEBUG\VC120.IDB
E:\4TH_YEAR\HONOURS PROJECT\HONOURSPROJECT\SOLARSYSTEM\SOLARSYSTEM\DEBUG\ASTEROID.OBJ
E:\4TH_YEAR\HONOURS PROJECT\HONOURSPROJECT\SOLARSYSTEM\SOLARSYSTEM\DEBUG\CAMERA.OBJ
E:\4TH_YEAR\HONOURS PROJECT\HONOURSPROJECT\SOLARSYSTEM\SOLARSYSTEM\DEBUG\GAME.OBJ
E:\4TH_YEAR\HONOURS PROJECT\HONOURSPROJECT\SOLARSYSTEM\SOLARSYSTEM\DEBUG\GUI.OBJ
E:\4TH_YEAR\HONOURS PROJECT\HONOURSPROJECT\SOLARSYSTEM\SOLARSYSTEM\DEBUG\LOADBITMAP.OBJ
E:\4TH_YEAR\HONOURS PROJECT\HONOURSPROJECT\SOLARSYSTEM\SOLARSYSTEM\DEBUG\LOADCUBEMAP.OBJ
E:\4TH_YEAR\HONOURS PROJECT\HONOURSPROJECT\SOLARSYSTEM\SOLARSYSTEM\DEBUG\LOADOBJECT.OBJ
E:\4TH_YEAR\HONOURS PROJECT\HONOURSPROJECT\SOLARSYSTEM\SOLARSYSTEM\DEBUG\MAIN.OBJ
E:\4TH_YEAR\HONOURS PROJECT\HONOURSPROJECT\SOLARSYSTEM\SOLARSYSTEM\DEBUG\NEWTONPHYSICS.OBJ
E:\4TH_YEAR\HONOURS PROJECT\HONOURSPROJECT\SOLARSYSTEM\SOLARSYSTEM\DEBUG\PERTURBATIONS.OBJ
E:\4TH_YEAR\HONOURS PROJECT\HONOURSPROJECT\SOLARSYSTEM\SOLARSYSTEM\DEBUG\PLANET.OBJ
E:\4TH_YEAR\HONOURS PROJECT\HONOURSPROJECT\SOLARSYSTEM\SOLARSYSTEM\DEBUG\RT3D.OBJ
E:\4TH_YEAR\HONOURS PROJECT\HONOURSPROJECT\SOLARSYSTEM\SOLARSYSTEM\DEBUG\RT3DOBJLOADER.OBJ
E:\4TH_YEAR\HONOURS PROJECT\HONOURSPROJECT\SOLARSYSTEM\SOLARSYSTEM\DEBUG\SHADERMANAGER.OBJ
E:\4TH_YEAR\HONOURS PROJECT\HONOURSPROJECT\SOLARSYSTEM\SOLARSYSTEM\DEBUG\STATEMAINMENU.OBJ
E:\4TH_YEAR\HONOURS PROJECT\HONOURSPROJECT\SOLARSYSTEM\SOLARSYSTEM\DEBUG\STATENEWTON.OBJ
E:\4TH_YEAR\HONOURS PROJECT\HONOURSPROJECT\SOLARSYSTEM\SOLARSYSTEM\DEBUG\TEXTUREMANAGER.OBJ
E:\4TH_YEAR\HONOURS PROJECT\HONOURSPROJECT\SOLARSYSTEM\SOLARSYSTEM\DEBUG\TIMER.OBJ
^E:\4TH_YEAR\HONOURS PROJECT\HONOURSPROJECT\SOLARSYSTEM\SOLARSYSTEM\ASTEROID.CPP
E:\4TH_YEAR\HONOURS PROJECT\HONOURSPROJECT\SOLARSYSTEM\SOLARSYSTEM\DEBUG\VC120.PDB
^E:\4TH_YEAR\HONOURS PROJECT\HONOURSPROJECT\SOLARSYSTEM\SOLARSYSTEM\CAMERA.CPP
E:\4TH_YEAR\HONOURS PROJECT\HONOURSPROJECT\SOLARSYSTEM\SOLARSYSTEM\DEBUG\VC120.PDB
^E:\4TH_YEAR\HONOURS PROJECT\HONOURSPROJECT\SOLARSYSTEM\SOLARSYSTEM\GAME.CPP
E:\4TH_YEAR\HONOURS PROJECT\HONOURSPROJECT\SOLARSYSTEM\SOLARSYSTEM\DEBUG\VC120.PDB
^E:\4TH_YEAR\HONOURS PROJECT\HONOURSPROJECT\SOLARSYSTEM\SOLARSYSTEM\GUI.CPP
E:\4TH_YEAR\HONOURS PROJECT\HONOURSPROJECT\SOLARSYSTEM\SOLARSYSTEM\DEBUG\VC120.PDB
^E:\4TH_YEAR\HONOURS PROJECT\HONOURSPROJECT\SOLARSYSTEM\SOLARSYSTEM\LOADBITMAP.CPP
E:\4TH_YEAR\HONOURS PROJECT\HONOURSPROJECT\SOLARSYSTEM\SOLARSYSTEM\DEBUG\VC120.PDB
^E:\4TH_YEAR\HONOURS PROJECT\HONOURSPROJECT\SOLARSYSTEM\SOLARSYSTEM\LOADCUBEMAP.CPP
E:\4TH_YEAR\HONOURS PROJECT\HONOURSPROJECT\SOLARSYSTEM\SOLARSYSTEM\DEBUG\VC120.PDB
^E:\4TH_YEAR\HONOURS PROJECT\HONOURSPROJECT\SOLARSYSTEM\SOLARSYSTEM\LOADOBJECT.CPP
E:\4TH_YEAR\HONOURS PROJECT\HONOURSPROJECT\SOLARSYSTEM\SOLARSYSTEM\DEBUG\VC120.PDB
^E:\4TH_YEAR\HONOURS PROJECT\HONOURSPROJECT\SOLARSYSTEM\SOLARSYSTEM\MAIN.CPP
E:\4TH_YEAR\HONOURS PROJECT\HONOURSPROJECT\SOLARSYSTEM\SOLARSYSTEM\DEBUG\VC120.PDB
E:\4TH_YEAR\HONOURS PROJECT\HONOURSPROJECT\SOLARSYSTEM\SOLARSYSTEM\DEBUG\VC120.IDB
E:\4TH_YEAR\HONOURS PROJECT\HONOURSPROJECT\SOLARSYSTEM\SOLARSYSTEM\DEBUG\MAIN.OBJ
^E:\4TH_YEAR\HONOURS PROJECT\HONOURSPROJECT\SOLARSYSTEM\SOLARSYSTEM\NEWTONPHYSICS.CPP
E:\4TH_YEAR\HONOURS PROJECT\HONOURSPROJECT\SOLARSYSTEM\SOLARSYSTEM\DEBUG\VC120.PDB
^E:\4TH_YEAR\HONOURS PROJECT\HONOURSPROJECT\SOLARSYSTEM\SOLARSYSTEM\PERTURBATIONS.CPP
E:\4TH_YEAR\HONOURS PROJECT\HONOURSPROJECT\SOLARSYSTEM\SOLARSYSTEM\DEBUG\VC120.PDB
^E:\4TH_YEAR\HONOURS PROJECT\HONOURSPROJECT\SOLARSYSTEM\SOLARSYSTEM\PLANET.CPP
E:\4TH_YEAR\HONOURS PROJECT\HONOURSPROJECT\SOLARSYSTEM\SOLARSYSTEM\DEBUG\VC120.PDB
E:\4TH_YEAR\HONOURS PROJECT\HONOURSPROJECT\SOLARSYSTEM\SOLARSYSTEM\DEBUG\VC120.IDB
E:\4TH_YEAR\HONOURS PROJECT\HONOURSPROJECT\SOLARSYSTEM\SOLARSYSTEM\DEBUG\PLANET.OBJ
^E:\4TH_YEAR\HONOURS PROJECT\HONOURSPROJECT\SOLARSYSTEM\SOLARSYSTEM\RT3D.CPP
E:\4TH_YEAR\HONOURS PROJECT\HONOURSPROJECT\SOLARSYSTEM\SOLARSYSTEM\DEBUG\VC120.PDB
^E:\4TH_YEAR\HONOURS PROJECT\HONOURSPROJECT\SOLARSYSTEM\SOLARSYSTEM\RT3DOBJLOADER.CPP
E:\4TH_YEAR\HONOURS PROJECT\HONOURSPROJECT\SOLARSYSTEM\SOLARSYSTEM\DEBUG\VC120.PDB
^E:\4TH_YEAR\HONOURS PROJECT\HONOURSPROJECT\SOLARSYSTEM\SOLARSYSTEM\SHADERMANAGER.CPP
E:\4TH_YEAR\HONOURS PROJECT\HONOURSPROJECT\SOLARSYSTEM\SOLARSYSTEM\DEBUG\VC120.PDB
^E:\4TH_YEAR\HONOURS PROJECT\HONOURSPROJECT\SOLARSYSTEM\SOLARSYSTEM\STATEMAINMENU.CPP
E:\4TH_YEAR\HONOURS PROJECT\HONOURSPROJECT\SOLARSYSTEM\SOLARSYSTEM\DEBUG\VC120.PDB
^E:\4TH_YEAR\HONOURS PROJECT\HONOURSPROJECT\SOLARSYSTEM\SOLARSYSTEM\STATENEWTON.CPP
E:\4TH_YEAR\HONOURS PROJECT\HONOURSPROJECT\SOLARSYSTEM\SOLARSYSTEM\DEBUG\VC120.PDB
E:\4TH_YEAR\HONOURS PROJECT\HONOURSPROJECT\SOLARSYSTEM\SOLARSYSTEM\DEBUG\VC120.IDB
E:\4TH_YEAR\HONOURS PROJECT\HONOURSPROJECT\SOLARSYSTEM\SOLARSYSTEM\DEBUG\STATENEWTON.OBJ
^E:\4TH_YEAR\HONOURS PROJECT\HONOURSPROJECT\SOLARSYSTEM\SOLARSYSTEM\TEXTUREMANAGER.CPP
E:\4TH_YEAR\HONOURS PROJECT\HONOURSPROJECT\SOLARSYSTEM\SOLARSYSTEM\DEBUG\VC120.PDB
^E:\4TH_YEAR\HONOURS PROJECT\HONOURSPROJECT\SOLARSYSTEM\SOLARSYSTEM\TIMER.CPP
E:\4TH_YEAR\HONOURS PROJECT\HONOURSPROJECT\SOLARSYSTEM\SOLARSYSTEM\DEBUG\VC120.PDB
^E:\4TH_YEAR\HONOURS PROJECT\HONOURSPROJECT\SOLARSYSTEM\SOLARSYSTEM\GAME.CPP|E:\4TH_YEAR\HONOURS PROJECT\HONOURSPROJECT\SOLARSYSTEM\SOLARSYSTEM\MAIN.CPP|E:\4TH_YEAR\HONOURS PROJECT\HONOURSPROJECT\SOLARSYSTEM\SOLARSYSTEM\PLANET.CPP|E:\4TH_YEAR\HONOURS PROJECT\HONOURSPROJECT\SOLARSYSTEM\SOLARSYSTEM\STATEMAINMENU.CPP|E:\4TH_YEAR\HONOURS PROJECT\HONOURSPROJECT\SOLARSYSTEM\SOLARSYSTEM\STATENEWTON.CPP
E:\4TH_YEAR\HONOURS PROJECT\HONOURSPROJECT\SOLARSYSTEM\SOLARSYSTEM\DEBUG\VC120.PDB
E:\4TH_YEAR\HONOURS PROJECT\HONOURSPROJECT\SOLARSYSTEM\SOLARSYSTEM\DEBUG\VC120.IDB
E:\4TH_YEAR\HONOURS PROJECT\HONOURSPROJECT\SOLARSYSTEM\SOLARSYSTEM\DEBUG\PLANET.OBJ
E:\4TH_YEAR\HONOURS PROJECT\HONOURSPROJECT\SOLARSYSTEM\SOLARSYSTEM\DEBUG\STATENEWTON.OBJ
E:\4TH_YEAR\HONOURS PROJECT\HONOURSPROJECT\SOLARSYSTEM\SOLARSYSTEM\DEBUG\GAME.OBJ
E:\4TH_YEAR\HONOURS PROJECT\HONOURSPROJECT\SOLARSYSTEM\SOLARSYSTEM\DEBUG\STATEMAINMENU.OBJ
E:\4TH_YEAR\HONOURS PROJECT\HONOURSPROJECT\SOLARSYSTEM\SOLARSYSTEM\DEBUG\MAIN.OBJ
^E:\4TH_YEAR\HONOURS PROJECT\HONOURSPROJECT\SOLARSYSTEM\SOLARSYSTEM\GAME.CPP|E:\4TH_YEAR\HONOURS PROJECT\HONOURSPROJECT\SOLARSYSTEM\SOLARSYSTEM\MAIN.CPP|E:\4TH_YEAR\HONOURS PROJECT\HONOURSPROJECT\SOLARSYSTEM\SOLARSYSTEM\STATEMAINMENU.CPP|E:\4TH_YEAR\HONOURS PROJECT\HONOURSPROJECT\SOLARSYSTEM\SOLARSYSTEM\STATENEWTON.CPP
E:\4TH_YEAR\HONOURS PROJECT\HONOURSPROJECT\SOLARSYSTEM\SOLARSYSTEM\DEBUG\VC120.PDB
E:\4TH_YEAR\HONOURS PROJECT\HONOURSPROJECT\SOLARSYSTEM\SOLARSYSTEM\DEBUG\VC120.IDB
E:\4TH_YEAR\HONOURS PROJECT\HONOURSPROJECT\SOLARSYSTEM\SOLARSYSTEM\DEBUG\GAME.OBJ
E:\4TH_YEAR\HONOURS PROJECT\HONOURSPROJECT\SOLARSYSTEM\SOLARSYSTEM\DEBUG\MAIN.OBJ
E:\4TH_YEAR\HONOURS PROJECT\HONOURSPROJECT\SOLARSYSTEM\SOLARSYSTEM\DEBUG\STATENEWTON.OBJ
