^E:\4TH_YEAR\HONOURS PROJECT\HONOURSPROJECT\SOLARSYSTEM\SOLARSYSTEM\DEBUG\ASTEROID.OBJ|E:\4TH_YEAR\HONOURS PROJECT\HONOURSPROJECT\SOLARSYSTEM\SOLARSYSTEM\DEBUG\CAMERA.OBJ|E:\4TH_YEAR\HONOURS PROJECT\HONOURSPROJECT\SOLARSYSTEM\SOLARSYSTEM\DEBUG\GAME.OBJ|E:\4TH_YEAR\HONOURS PROJECT\HONOURSPROJECT\SOLARSYSTEM\SOLARSYSTEM\DEBUG\GUI.OBJ|E:\4TH_YEAR\HONOURS PROJECT\HONOURSPROJECT\SOLARSYSTEM\SOLARSYSTEM\DEBUG\LOADBITMAP.OBJ|E:\4TH_YEAR\HONOURS PROJECT\HONOURSPROJECT\SOLARSYSTEM\SOLARSYSTEM\DEBUG\LOADCUBEMAP.OBJ|E:\4TH_YEAR\HONOURS PROJECT\HONOURSPROJECT\SOLARSYSTEM\SOLARSYSTEM\DEBUG\LOADOBJECT.OBJ|E:\4TH_YEAR\HONOURS PROJECT\HONOURSPROJECT\SOLARSYSTEM\SOLARSYSTEM\DEBUG\MAIN.OBJ|E:\4TH_YEAR\HONOURS PROJECT\HONOURSPROJECT\SOLARSYSTEM\SOLARSYSTEM\DEBUG\NEWTONPHYSICS.OBJ|E:\4TH_YEAR\HONOURS PROJECT\HONOURSPROJECT\SOLARSYSTEM\SOLARSYSTEM\DEBUG\PERTURBATIONS.OBJ|E:\4TH_YEAR\HONOURS PROJECT\HONOURSPROJECT\SOLARSYSTEM\SOLARSYSTEM\DEBUG\PLANET.OBJ|E:\4TH_YEAR\HONOURS PROJECT\HONOURSPROJECT\SOLARSYSTEM\SOLARSYSTEM\DEBUG\RT3D.OBJ|E:\4TH_YEAR\HONOURS PROJECT\HONOURSPROJECT\SOLARSYSTEM\SOLARSYSTEM\DEBUG\RT3DOBJLOADER.OBJ|E:\4TH_YEAR\HONOURS PROJECT\HONOURSPROJECT\SOLARSYSTEM\SOLARSYSTEM\DEBUG\SHADERMANAGER.OBJ|E:\4TH_YEAR\HONOURS PROJECT\HONOURSPROJECT\SOLARSYSTEM\SOLARSYSTEM\DEBUG\STATEMAINMENU.OBJ|E:\4TH_YEAR\HONOURS PROJECT\HONOURSPROJECT\SOLARSYSTEM\SOLARSYSTEM\DEBUG\STATENEWTON.OBJ|E:\4TH_YEAR\HONOURS PROJECT\HONOURSPROJECT\SOLARSYSTEM\SOLARSYSTEM\DEBUG\TEXTUREMANAGER.OBJ|E:\4TH_YEAR\HONOURS PROJECT\HONOURSPROJECT\SOLARSYSTEM\SOLARSYSTEM\DEBUG\TIMER.OBJ
E:\4TH_YEAR\HONOURS PROJECT\HONOURSPROJECT\SOLARSYSTEM\DEBUG\SOLARSYSTEM.ILK
E:\4TH_YEAR\HONOURS PROJECT\HONOURSPROJECT\SOLARSYSTEM\DEBUG\SOLARSYSTEM.EXE
E:\4TH_YEAR\HONOURS PROJECT\HONOURSPROJECT\SOLARSYSTEM\DEBUG\SOLARSYSTEM.PDB
